module github.com/khulnasoft-lab/tfsecurity

go 1.19

require (
	github.com/AlecAivazis/survey/v2 v2.3.6
	github.com/Masterminds/semver v1.5.0
	github.com/google/uuid v1.3.0
	github.com/hashicorp/go-version v1.6.0
	github.com/inconshreveable/go-update v0.0.0-20160112193335-8152e7eb6ccf
	github.com/khulnasoft-lab/defsec v1.0.4
	github.com/liamg/clinch v1.6.1
	github.com/liamg/gifwrap v0.0.7
	github.com/liamg/tml v0.6.1
	github.com/spf13/cobra v1.7.0
	github.com/spf13/pflag v1.0.5
	github.com/spf13/viper v1.15.0
	github.com/stretchr/testify v1.8.4
	github.com/zclconf/go-cty v1.10.0
	gopkg.in/yaml.v2 v2.4.0
)

require (
	cloud.google.com/go v0.110.0 // indirect
	cloud.google.com/go/compute v1.19.1 // indirect
	cloud.google.com/go/compute/metadata v0.2.3 // indirect
	cloud.google.com/go/iam v0.13.0 // indirect
	cloud.google.com/go/storage v1.28.1 // indirect
	dario.cat/mergo v1.0.0 // indirect
	github.com/Microsoft/go-winio v0.6.1 // indirect
	github.com/OneOfOne/xxhash v1.2.8 // indirect
	github.com/ProtonMail/go-crypto v0.0.0-20230717121422-5aa5874ade95 // indirect
	github.com/acomagu/bufpipe v1.0.4 // indirect
	github.com/agext/levenshtein v1.2.3 // indirect
	github.com/agnivade/levenshtein v1.1.1 // indirect
	github.com/alecthomas/chroma v0.10.0 // indirect
	github.com/apparentlymart/go-cidr v1.1.0 // indirect
	github.com/apparentlymart/go-textseg/v13 v13.0.0 // indirect
	github.com/aws/aws-sdk-go v1.44.245 // indirect
	github.com/beorn7/perks v1.0.1 // indirect
	github.com/bgentry/go-netrc v0.0.0-20140422174119-9fd32a8b3d3d // indirect
	github.com/bmatcuk/doublestar/v4 v4.6.0 // indirect
	github.com/cespare/xxhash/v2 v2.2.0 // indirect
	github.com/cloudflare/circl v1.3.3 // indirect
	github.com/davecgh/go-spew v1.1.1 // indirect
	github.com/dlclark/regexp2 v1.4.0 // indirect
	github.com/emirpasic/gods v1.18.1 // indirect
	github.com/fsnotify/fsnotify v1.6.0 // indirect
	github.com/gdamore/encoding v1.0.0 // indirect
	github.com/gdamore/tcell/v2 v2.5.0 // indirect
	github.com/ghodss/yaml v1.0.0 // indirect
	github.com/go-git/gcfg v1.5.1-0.20230307220236-3a3c6141e376 // indirect
	github.com/go-git/go-billy/v5 v5.4.1 // indirect
	github.com/go-git/go-git/v5 v5.8.1 // indirect
	github.com/go-ini/ini v1.67.0 // indirect
	github.com/go-logr/logr v1.2.4 // indirect
	github.com/go-logr/stdr v1.2.2 // indirect
	github.com/gobwas/glob v0.2.3 // indirect
	github.com/golang/groupcache v0.0.0-20210331224755-41bb18bfe9da // indirect
	github.com/golang/protobuf v1.5.3 // indirect
	github.com/google/go-cmp v0.5.9 // indirect
	github.com/googleapis/enterprise-certificate-proxy v0.2.3 // indirect
	github.com/googleapis/gax-go/v2 v2.7.1 // indirect
	github.com/gorilla/mux v1.8.0 // indirect
	github.com/hashicorp/go-cleanhttp v0.5.2 // indirect
	github.com/hashicorp/go-getter v1.7.1 // indirect
	github.com/hashicorp/go-safetemp v1.0.0 // indirect
	github.com/hashicorp/go-uuid v1.0.3 // indirect
	github.com/hashicorp/hcl v1.0.0 // indirect
	github.com/hashicorp/hcl/v2 v2.14.1 // indirect
	github.com/inconshreveable/mousetrap v1.1.0 // indirect
	github.com/jbenet/go-context v0.0.0-20150711004518-d14ea06fba99 // indirect
	github.com/jmespath/go-jmespath v0.4.0 // indirect
	github.com/kballard/go-shellquote v0.0.0-20180428030007-95032a82bc51 // indirect
	github.com/kevinburke/ssh_config v1.2.0 // indirect
	github.com/klauspost/compress v1.16.0 // indirect
	github.com/kylelemons/godebug v1.1.0 // indirect
	github.com/liamg/iamgo v0.0.9 // indirect
	github.com/liamg/jfather v0.0.7 // indirect
	github.com/lucasb-eyer/go-colorful v1.2.0 // indirect
	github.com/magiconair/properties v1.8.7 // indirect
	github.com/mattn/go-colorable v0.1.13 // indirect
	github.com/mattn/go-isatty v0.0.17 // indirect
	github.com/matttproud/golang_protobuf_extensions v1.0.4 // indirect
	github.com/mgutz/ansi v0.0.0-20170206155736-9520e82c474b // indirect
	github.com/mitchellh/go-homedir v1.1.0 // indirect
	github.com/mitchellh/go-testing-interface v1.14.1 // indirect
	github.com/mitchellh/go-wordwrap v1.0.1 // indirect
	github.com/mitchellh/mapstructure v1.5.0 // indirect
	github.com/olekukonko/tablewriter v0.0.5 // indirect
	github.com/open-policy-agent/opa v0.55.0 // indirect
	github.com/owenrumney/squealer v1.2.1 // indirect
	github.com/pelletier/go-toml/v2 v2.0.6 // indirect
	github.com/pjbgf/sha1cd v0.3.0 // indirect
	github.com/pmezard/go-difflib v1.0.0 // indirect
	github.com/prometheus/client_golang v1.16.0 // indirect
	github.com/prometheus/client_model v0.3.0 // indirect
	github.com/prometheus/common v0.42.0 // indirect
	github.com/prometheus/procfs v0.10.1 // indirect
	github.com/rcrowley/go-metrics v0.0.0-20200313005456-10cdbea86bc0 // indirect
	github.com/sergi/go-diff v1.1.0 // indirect
	github.com/sirupsen/logrus v1.9.3 // indirect
	github.com/skeema/knownhosts v1.2.0 // indirect
	github.com/spf13/afero v1.9.3 // indirect
	github.com/spf13/cast v1.5.0 // indirect
	github.com/spf13/jwalterweatherman v1.1.0 // indirect
	github.com/subosito/gotenv v1.4.2 // indirect
	github.com/tchap/go-patricia/v2 v2.3.1 // indirect
	github.com/ulikunitz/xz v0.5.10 // indirect
	github.com/xanzy/ssh-agent v0.3.3 // indirect
	github.com/xeipuuv/gojsonpointer v0.0.0-20190905194746-02993c407bfb // indirect
	github.com/xeipuuv/gojsonreference v0.0.0-20180127040603-bd5ef7bd5415 // indirect
	github.com/yashtewari/glob-intersection v0.2.0 // indirect
	github.com/zclconf/go-cty-yaml v1.0.2 // indirect
	go.opencensus.io v0.24.0 // indirect
	go.opentelemetry.io/otel v1.16.0 // indirect
	go.opentelemetry.io/otel/metric v1.16.0 // indirect
	go.opentelemetry.io/otel/sdk v1.16.0 // indirect
	go.opentelemetry.io/otel/trace v1.16.0 // indirect
	golang.org/x/crypto v0.11.0 // indirect
	golang.org/x/mod v0.10.0 // indirect
	golang.org/x/net v0.13.0 // indirect
	golang.org/x/oauth2 v0.7.0 // indirect
	golang.org/x/sys v0.10.0 // indirect
	golang.org/x/term v0.10.0 // indirect
	golang.org/x/text v0.12.0 // indirect
	golang.org/x/tools v0.8.0 // indirect
	golang.org/x/xerrors v0.0.0-20220907171357-04be3eba64a2 // indirect
	google.golang.org/api v0.114.0 // indirect
	google.golang.org/appengine v1.6.7 // indirect
	google.golang.org/genproto v0.0.0-20230410155749-daa745c078e1 // indirect
	google.golang.org/grpc v1.56.2 // indirect
	google.golang.org/protobuf v1.30.0 // indirect
	gopkg.in/ini.v1 v1.67.0 // indirect
	gopkg.in/warnings.v0 v0.1.2 // indirect
	gopkg.in/yaml.v3 v3.0.1 // indirect
)

require (
	github.com/liamg/memoryfs v1.6.0
	github.com/mattn/go-runewidth v0.0.13 // indirect
	github.com/owenrumney/go-sarif/v2 v2.2.0
	github.com/rivo/uniseg v0.2.0 // indirect
)
